"id","name","model_id:id","group_id:id","perm_read","perm_write","perm_create","perm_unlink"

access_website_dynamique_bloc_public,website_dynamique_bloc_public,website_dynamique_bloc.model_website_dynamique_bloc,base.group_public,1,1,1,1
access_website_dynamique_bloc_portal,website_dynamique_bloc_portal,website_dynamique_bloc.model_website_dynamique_bloc,base.group_portal,1,1,1,1
access_website_dynamique_bloc_user,website_dynamique_bloc_user,website_dynamique_bloc.model_website_dynamique_bloc,base.group_user,1,1,1,1

access_bloc_public,bloc_public,website_dynamique_bloc.model_bloc,base.group_public,1,1,1,1
access_bloc_portal,bloc_portal,website_dynamique_bloc.model_bloc,base.group_portal,1,1,1,1
access_bloc_user,bloc_user,website_dynamique_bloc.model_bloc,base.group_user,1,1,1,1

access_bloc_line_public,bloc_line_public,website_dynamique_bloc.model_bloc_line,base.group_public,1,1,1,1
access_bloc_line_portal,bloc_line_portal,website_dynamique_bloc.model_bloc_line,base.group_portal,1,1,1,1
access_bloc_line_user,bloc_line_user,website_dynamique_bloc.model_bloc_line,base.group_user,1,1,1,1